…
(
  d <-
  tibble(p_grid     = seq(from = 0, to = 1, length.out = n),
       # note we're still using a flat uniform prior
       prior        = 1) %>% 
  mutate(likelihood = dbinom(n_success, size = n_tirals, prob = p_grid)) %>% 
  mutate(posterior  = likelihood * prior) %>% 
  mutate(posterior  = posterior / sum(posterior))
  )
```

    ## # A tibble: 1,000 x 4
    ##     p_grid prior likelihood posterior
    ##      <dbl> <dbl>      <dbl>     <dbl>
    ##  1 0           1   0.        0.      
    ##  2 0.00100     1   8.43e-17  8.43e-19
    ##  3 0.00200     1   5.38e-15  5.38e-17
    ##  4 0.00300     1   6.11e-14  6.11e-16
    ##  5 0.00400     1   3.42e-13  3.42e-15
    ##  6 0.00501     1   1.30e-12  1.30e-14
    ##  7 0.00601     1   3.87e-12  3.88e-14
    ##  8 0.00701     1   9.73e-12  9.74e-14
    ##  9 0.00801     1   2.16e-11  2.16e-13
    ## 10 0.00901     1   4.37e-11  4.38e-13
    ## # ... with 990 more rows
…
# update d
d <-
  d %>% 
  mutate(likelihood = dbinom(n_success, size = n_tirals, prob = p_grid)) %>% 
  mutate(posterior  = likelihood * prior) %>% 
  mutate(posterior  = posterior / sum(posterior))

# here's our new samples tibble
(
  samples <- tibble(samples = sample(d$p_grid, prob = d$posterior, size = 1e4, replace = T))
)
```

    ## # A tibble: 10,000 x 1
    ##    samples
    ##      <dbl>
    ##  1   0.470
    ##  2   0.809
    ##  3   0.713
    ##  4   0.981
    ##  5   0.918
    ##  6   0.792
    ##  7   0.945
    ##  8   0.333
    ##  9   0.909
    ## 10   0.712
    ## # ... with 9,990 more rows
…
### Point estimates.

We've been calling point estimates measures of central tendency. If we `arrange()` our `d` tibble in descending order by `posterior`, we'll see the corresponding `p_grid` value for its MAP estimate.

``` r
d %>% 
  arrange(desc(posterior))
```

    ## # A tibble: 1,000 x 4
    ##    p_grid prior likelihood posterior
    ##     <dbl> <dbl>      <dbl>     <dbl>
    ##  1  1         1      1       0.00400
    ##  2  0.999     1      0.997   0.00398
    ##  3  0.998     1      0.994   0.00397
    ##  4  0.997     1      0.991   0.00396
    ##  5  0.996     1      0.988   0.00395
    ##  6  0.995     1      0.985   0.00394
    ##  7  0.994     1      0.982   0.00392
    ##  8  0.993     1      0.979   0.00391
    ##  9  0.992     1      0.976   0.00390
    ## 10  0.991     1      0.973   0.00389
    ## # ... with 990 more rows
…
(
  l <-
  d %>% 
  select(p_grid) %>% 
  rename(decision = p_grid) %>% 
  mutate(weighted_average_loss = map(decision, make_loss)) %>% 
  unnest() 
)
```

    ## # A tibble: 1,000 x 2
    ##    decision weighted_average_loss
    ##       <dbl>                 <dbl>
    ##  1  0                       0.800
    ##  2  0.00100                 0.799
    ##  3  0.00200                 0.798
    ##  4  0.00300                 0.797
    ##  5  0.00400                 0.796
    ##  6  0.00501                 0.795
    ##  7  0.00601                 0.794
    ##  8  0.00701                 0.793
    ##  9  0.00801                 0.792
    ## 10  0.00901                 0.791
    ## # ... with 990 more rows
…
(
  disaggregated_samples <-
  samples %>% 
  select(samples) %>% 
  mutate(iteration = 1:n(),
         draws = map(samples, simulate_disaggregated_binom)) %>% 
  unnest()
  )
```

    ## # A tibble: 90,000 x 3
    ##    samples iteration draws
    ##      <dbl>     <int> <int>
    ##  1   0.445         1     0
    ##  2   0.445         1     0
    ##  3   0.445         1     1
    ##  4   0.445         1     0
    ##  5   0.445         1     1
    ##  6   0.445         1     1
    ##  7   0.445         1     0
    ##  8   0.445         1     0
    ##  9   0.445         1     0
    ## 10   0.394         2     0
    ## # ... with 89,990 more rows
…
