…
This kind of model is trivial in the brms framework, which you can learn more about in Bürkner's vignette [*Estimating Distributional Models with brms*](https://cran.r-project.org/web/packages/brms/vignettes/brms_distreg.html). Before moving on with the text, let's detour and see how we might fit such a model. First, let's simulate some continuous data `y` for which the *S**D* is effected by a dummy variable `x`.

``` r
set.seed(100)
(
  d <-
  tibble(x = rep(0:1, each = 100)) %>% 
  mutate(y = rnorm(n = n(), mean = 100, sd = 10 + x * 10))
  )
```

    ## # A tibble: 200 x 2
    ##        x     y
    ##    <int> <dbl>
    ##  1     0  95.0
    ##  2     0 101. 
    ##  3     0  99.2
    ##  4     0 109. 
    ##  5     0 101. 
    ##  6     0 103. 
    ##  7     0  94.2
    ##  8     0 107. 
    ##  9     0  91.7
    ## 10     0  96.4
    ## # ... with 190 more rows
…
