…
#### Overthinking: Using the ~~by~~ \[`group_by()`\] function.

Let's work within the tidyverse, instead. If you wanted to compute the proportion of trials `pulled_left == 1` for each combination of `prosoc_left`, `condition`, and chimp `actor`, you'd put those last three variables within `group_by()` and then compute the `mean()` of `pulled_left` within `summarise()`.

``` r
d %>% 
  group_by(prosoc_left, condition, actor) %>% 
  summarise(`proportion pulled_left` = mean(pulled_left))
```

    ## # A tibble: 28 x 4
    ## # Groups:   prosoc_left, condition [?]
    ##    prosoc_left condition actor `proportion pulled_left`
    ##          <int>     <int> <int>                    <dbl>
    ##  1           0         0     1                    0.333
    ##  2           0         0     2                    1    
    ##  3           0         0     3                    0.278
    ##  4           0         0     4                    0.333
    ##  5           0         0     5                    0.333
    ##  6           0         0     6                    0.778
    ##  7           0         0     7                    0.778
    ##  8           0         1     1                    0.278
    ##  9           0         1     2                    1    
    ## 10           0         1     3                    0.167
    ## # ... with 18 more rows
…
Let's make them tidy and add `log_days`.

``` r
(
  d <- 
  tibble(y         = c(y, y_new), 
         days      = c(rep(1, num_days), rep(7, num_weeks)),
         monastery = c(rep(0, num_days), rep(1, num_weeks))) %>%
  mutate(log_days = log(days))
)
```

    ## # A tibble: 34 x 4
    ##        y  days monastery log_days
    ##    <int> <dbl>     <dbl>    <dbl>
    ##  1     1     1         0        0
    ##  2     2     1         0        0
    ##  3     1     1         0        0
    ##  4     1     1         0        0
    ##  5     1     1         0        0
    ##  6     2     1         0        0
    ##  7     0     1         0        0
    ##  8     1     1         0        0
    ##  9     1     1         0        0
    ## 10     0     1         0        0
    ## # ... with 24 more rows
…
