…
But here's our prep work for Figure 12.1

``` r
post <- posterior_samples(b12.2)

postMdn <- 
  coef(b12.2, robust = T)$tank[, , ] %>% 
  as_tibble() %>% 
  bind_cols(d) %>%
  mutate(postMdn = inv_logit_scaled(Estimate))

postMdn
```

    ## # A tibble: 48 x 11
    ##    Estimate Est.Error   Q2.5 Q97.5 density pred  size   surv propsurv
    ##       <dbl>     <dbl>  <dbl> <dbl>   <int> <fct> <fct> <int>    <dbl>
    ##  1    2.07      0.855  0.595  3.99      10 no    big       9      0.9
    ##  2    2.95      1.08   1.15   5.53      10 no    big      10      1  
    ##  3    0.973     0.651 -0.254  2.40      10 no    big       7      0.7
    ##  4    2.93      1.07   1.19   5.43      10 no    big      10      1  
    ##  5    2.06      0.832  0.613  3.99      10 no    small     9      0.9
    ##  6    2.07      0.843  0.597  4.03      10 no    small     9      0.9
    ##  7    2.95      1.07   1.19   5.48      10 no    small    10      1  
    ##  8    2.06      0.856  0.615  4.02      10 no    small     9      0.9
    ##  9   -0.180     0.591 -1.42   1.01      10 pred  big       4      0.4
    ## 10    2.05      0.826  0.604  4.03      10 pred  big       9      0.9
    ## # ... with 38 more rows, and 2 more variables: tank <int>, postMdn <dbl>
…
``` r
a       <-  1.4
sigma   <-  1.5
n_ponds <- 60

set.seed(1222)  # make results reproducible
(
  dsim <- 
  tibble(pond   = 1:n_ponds,
         ni     = rep(c(5, 10, 25, 35), each = n_ponds / 4) %>% as.integer(),
         true_a = rnorm(n = n_ponds, mean = a, sd = sigma))
  )
```

    ## # A tibble: 60 x 3
    ##     pond    ni true_a
    ##    <int> <int>  <dbl>
    ##  1     1     5  1.95 
    ##  2     2     5  0.249
    ##  3     3     5  0.521
    ##  4     4     5  1.20 
    ##  5     5     5 -3.34 
    ##  6     6     5  0.184
    ##  7     7     5  1.63 
    ##  8     8     5  0.336
    ##  9     9     5  1.83 
    ## 10    10     5 -0.865
    ## # ... with 50 more rows
…
``` r
set.seed(1223)
(
  dsim <-
  dsim %>%
  mutate(si = rbinom(n = n(), prob = inv_logit_scaled(true_a), size = ni))
  )
```

    ## # A tibble: 60 x 4
    ##     pond    ni true_a    si
    ##    <int> <int>  <dbl> <int>
    ##  1     1     5  1.95      4
    ##  2     2     5  0.249     4
    ##  3     3     5  0.521     4
    ##  4     4     5  1.20      4
    ##  5     5     5 -3.34      0
    ##  6     6     5  0.184     2
    ##  7     7     5  1.63      5
    ##  8     8     5  0.336     2
    ##  9     9     5  1.83      4
    ## 10    10     5 -0.865     0
    ## # ... with 50 more rows

### Compute the no-pooling estimates.

The no-pooling estimates (i.e., *α*<sub>tank<sub>*i*</sub></sub>) are a function of simple algebra.

``` r
(
  dsim <-
  dsim %>%
  mutate(p_nopool = si / ni)
  )
```

    ## # A tibble: 60 x 5
    ##     pond    ni true_a    si p_nopool
    ##    <int> <int>  <dbl> <int>    <dbl>
    ##  1     1     5  1.95      4      0.8
    ##  2     2     5  0.249     4      0.8
    ##  3     3     5  0.521     4      0.8
    ##  4     4     5  1.20      4      0.8
    ##  5     5     5 -3.34      0      0  
    ##  6     6     5  0.184     2      0.4
    ##  7     7     5  1.63      5      1  
    ##  8     8     5  0.336     2      0.4
    ##  9     9     5  1.83      4      0.8
    ## 10    10     5 -0.865     0      0  
    ## # ... with 50 more rows
…
