…
Let’s take this baby for a whirl.

``` r
# How many simulations would you like?
n_sim <- 1e4

(
  d <-
  tibble(seed = 1:n_sim) %>% 
  mutate(r = map(seed, sim_pancake)) %>% 
  unnest()
  )
```

    ## # A tibble: 20,000 x 5
    ##     seed value side  pancake_n pancake_chr
    ##    <int> <dbl> <chr>     <int> <chr>      
    ##  1     1     1 up            1 BB         
    ##  2     1     1 down          1 BB         
    ##  3     2     1 up            1 BB         
    ##  4     2     1 down          1 BB         
    ##  5     3     1 up            1 BB         
    ##  6     3     1 down          1 BB         
    ##  7     4     0 up            2 BU         
    ##  8     4     1 down          2 BU         
    ##  9     5     1 up            1 BB         
    ## 10     5     1 down          1 BB         
    ## # ... with 19,990 more rows
…
