…
pwaic <-
  dfvar %>%
  sum()

pwaic
```

    ## [1] 3.244728

``` r
dfvar
```

    ## # A tibble: 50 x 1
    ##      vars
    ##     <dbl>
    ##  1 0.0218
    ##  2 0.0719
    ##  3 0.0226
    ##  4 0.0458
    ##  5 0.0129
    ##  6 0.0212
    ##  7 0.0132
    ##  8 0.0127
    ##  9 0.0277
    ## 10 0.0172
    ## # ... with 40 more rows
…
