…
pwaic
```

```
## [1] 5.976087
```

```r
dfvar
```

```
## # A tibble: 50 x 1
##      vars
##     <dbl>
##  1 0.106 
##  2 0.175 
##  3 0.0633
##  4 0.148 
##  5 0.0907
##  6 0.0540
##  7 0.0658
##  8 0.0986
##  9 0.130 
## 10 0.0468
## # ... with 40 more rows
```
…
