…
(
  d <-
  tibble(p_grid     = seq(from = 0, to = 1, length.out = n),
         # note we're still using a flat uniform prior
         prior      = 1) %>% 
  mutate(likelihood = dbinom(n_success, size = n_trials, prob = p_grid)) %>% 
  mutate(posterior  = (likelihood * prior) / sum(likelihood * prior))
  )
```

```
## # A tibble: 1,001 x 4
##    p_grid prior likelihood posterior
##     <dbl> <dbl>      <dbl>     <dbl>
##  1  0         1   0.        0.      
##  2  0.001     1   8.37e-17  8.37e-19
##  3  0.002     1   5.34e-15  5.34e-17
##  4  0.003     1   6.07e-14  6.07e-16
##  5  0.004     1   3.40e-13  3.40e-15
##  6  0.005     1   1.29e-12  1.29e-14
##  7  0.006     1   3.85e-12  3.85e-14
##  8  0.007     1   9.68e-12  9.68e-14
##  9  0.008     1   2.15e-11  2.15e-13
## 10  0.009     1   4.34e-11  4.34e-13
## # … with 991 more rows
```
…
# make the next part reproducible
set.seed(3)

# here's our new samples tibble
(
  samples <-
    d %>% 
    sample_n(size = n_samples, weight = posterior, replace = T)
)
```

```
## # A tibble: 10,000 x 4
##    p_grid prior likelihood posterior
##     <dbl> <dbl>      <dbl>     <dbl>
##  1  0.944     1     0.841     0.841 
##  2  0.808     1     0.528     0.528 
##  3  0.872     1     0.663     0.663 
##  4  0.328     1     0.0353    0.0353
##  5  0.602     1     0.218     0.218 
##  6  0.809     1     0.529     0.529 
##  7  0.959     1     0.882     0.882 
##  8  0.902     1     0.734     0.734 
##  9  0.578     1     0.193     0.193 
## 10  0.631     1     0.251     0.251 
## # … with 9,990 more rows
```
…
### Point estimates.

We've been calling point estimates measures of central tendency. If we `arrange()` our `d` tibble in descending order by `posterior`, we'll see the corresponding `p_grid` value for its MAP estimate.


```r
d %>% 
  arrange(desc(posterior))
```

```
## # A tibble: 1,001 x 4
##    p_grid prior likelihood posterior
##     <dbl> <dbl>      <dbl>     <dbl>
##  1  1         1      1         1    
##  2  0.999     1      0.997     0.997
##  3  0.998     1      0.994     0.994
##  4  0.997     1      0.991     0.991
##  5  0.996     1      0.988     0.988
##  6  0.995     1      0.985     0.985
##  7  0.994     1      0.982     0.982
##  8  0.993     1      0.979     0.979
##  9  0.992     1      0.976     0.976
## 10  0.991     1      0.973     0.973
## # … with 991 more rows
```
…
(
  l <-
  d %>% 
  select(p_grid) %>% 
  rename(decision = p_grid) %>% 
  mutate(weighted_average_loss = purrr::map(decision, make_loss)) %>% 
  unnest() 
)
```

```
## # A tibble: 1,001 x 2
##    decision weighted_average_loss
##       <dbl>                 <dbl>
##  1    0                      201.
##  2    0.001                  200.
##  3    0.002                  200.
##  4    0.003                  200.
##  5    0.004                  199.
##  6    0.005                  199.
##  7    0.006                  199.
##  8    0.007                  199.
##  9    0.008                  198.
## 10    0.009                  198.
## # … with 991 more rows
```
…
(
  d <-
  tibble(p_grid     = seq(from = 0, to = 1, length.out = n),
         # note we're still using a flat uniform prior
         prior      = 1) %>% 
  mutate(likelihood = dbinom(n_success, size = n_trials, prob = p_grid)) %>% 
  mutate(posterior  = (likelihood * prior) / sum(likelihood * prior))
  )
```

```
## # A tibble: 1,001 x 4
##    p_grid prior likelihood posterior
##     <dbl> <dbl>      <dbl>     <dbl>
##  1  0         1   0.        0.      
##  2  0.001     1   8.37e-17  8.37e-19
##  3  0.002     1   5.34e-15  5.34e-17
##  4  0.003     1   6.07e-14  6.07e-16
##  5  0.004     1   3.40e-13  3.40e-15
##  6  0.005     1   1.29e-12  1.29e-14
##  7  0.006     1   3.85e-12  3.85e-14
##  8  0.007     1   9.68e-12  9.68e-14
##  9  0.008     1   2.15e-11  2.15e-13
## 10  0.009     1   4.34e-11  4.34e-13
## # … with 991 more rows
```
…
