…
This kind of model is trivial in the brms framework, which you can learn more about in Bürkner's vignette [*Estimating Distributional Models with brms*](https://cran.r-project.org/web/packages/brms/vignettes/brms_distreg.html). Before moving on with the text, let's detour and see how we might fit such a model. First, let's simulate some continuous data `y` for which the $SD$ is effected by a dummy variable `x`.


```r
set.seed(9)
(
  d <-
  tibble(x = rep(0:1, each = 100)) %>% 
  mutate(y = rnorm(n = n(), mean = 100, sd = 10 + x * 10))
  )
```

```
## # A tibble: 200 x 2
##        x     y
##    <int> <dbl>
##  1     0  92.3
##  2     0  91.8
##  3     0  98.6
##  4     0  97.2
##  5     0 104. 
##  6     0  88.1
##  7     0 112. 
##  8     0  99.8
##  9     0  97.5
## 10     0  96.4
## # … with 190 more rows
```
…
