…
```r
post <- posterior_samples(b12.2, add_chain = T)

post_mdn <- 
  coef(b12.2, robust = T)$tank[, , ] %>% 
  as_tibble() %>% 
  bind_cols(d) %>%
  mutate(post_mdn = inv_logit_scaled(Estimate))

post_mdn
```

```
## # A tibble: 48 x 11
##    Estimate Est.Error   Q2.5 Q97.5 density pred  size   surv propsurv  tank post_mdn
##       <dbl>     <dbl>  <dbl> <dbl>   <int> <fct> <fct> <int>    <dbl> <int>    <dbl>
##  1    2.06      0.834  0.598 3.96       10 no    big       9      0.9     1    0.886
##  2    2.96      1.06   1.18  5.48       10 no    big      10      1       2    0.951
##  3    0.974     0.662 -0.257 2.40       10 no    big       7      0.7     3    0.726
##  4    2.95      1.08   1.13  5.61       10 no    big      10      1       4    0.950
##  5    2.06      0.855  0.613 4.09       10 no    small     9      0.9     5    0.887
##  6    2.06      0.845  0.586 3.99       10 no    small     9      0.9     6    0.886
##  7    2.96      1.06   1.21  5.50       10 no    small    10      1       7    0.951
##  8    2.06      0.849  0.602 4.04       10 no    small     9      0.9     8    0.887
##  9   -0.170     0.603 -1.39  0.994      10 pred  big       4      0.4     9    0.458
## 10    2.07      0.848  0.597 4.01       10 pred  big       9      0.9    10    0.888
## # … with 38 more rows
```
…
```r
set.seed(12)
(
  dsim <-
  dsim %>%
  mutate(si = rbinom(n = n(), prob = inv_logit_scaled(true_a), size = ni))
)
```

```
## # A tibble: 60 x 4
##     pond    ni  true_a    si
##    <int> <int>   <dbl> <int>
##  1     1     5 -0.821      0
##  2     2     5  3.77       5
##  3     3     5 -0.0351     4
##  4     4     5  0.0200     3
##  5     5     5 -1.60       0
##  6     6     5  0.992      5
##  7     7     5  0.927      5
##  8     8     5  0.458      3
##  9     9     5  1.24       5
## 10    10     5  2.04       5
## # … with 50 more rows
```
### Compute the no-pooling estimates.

The no-pooling estimates (i.e., $\alpha_{\text{tank}_i}$) are the results of simple algebra.


```r
(
  dsim <-
  dsim %>%
  mutate(p_nopool = si / ni)
)
```

```
## # A tibble: 60 x 5
##     pond    ni  true_a    si p_nopool
##    <int> <int>   <dbl> <int>    <dbl>
##  1     1     5 -0.821      0      0  
##  2     2     5  3.77       5      1  
##  3     3     5 -0.0351     4      0.8
##  4     4     5  0.0200     3      0.6
##  5     5     5 -1.60       0      0  
##  6     6     5  0.992      5      1  
##  7     7     5  0.927      5      1  
##  8     8     5  0.458      3      0.6
##  9     9     5  1.24       5      1  
## 10    10     5  2.04       5      1  
## # … with 50 more rows
```
…
```
## # A tibble: 200 x 4
##     iter key   value condition
##    <int> <chr> <dbl> <fct>    
##  1     1 V1    0.228 0/0      
##  2     2 V1    0.562 0/0      
##  3     3 V1    0.507 0/0      
##  4     4 V1    0.644 0/0      
##  5     5 V1    0.812 0/0      
##  6     6 V1    0.753 0/0      
##  7     7 V1    0.347 0/0      
##  8     8 V1    0.398 0/0      
##  9     9 V1    0.886 0/0      
## 10    10 V1    0.774 0/0      
## # … with 190 more rows
```
…
Let's learn one more option.

### `tidybayes::spread_draws()`.

Up till this point, we've really only used the tidybayes package for plotting (e.g., with `stat_halfeye()`) and summarizing (e.g., with `median_qi()`). But tidybayes is more general; it offers a handful of convenience functions for wrangling posterior draws from a tidyverse perspective. One such function is `spread_draws()`, which you can learn all about in Matthew Kay's [-@kayExtractingVisualizingTidy2020] vignette, [*Extracting and visualizing tidy draws from brms models*](https://mjskay.github.io/tidybayes/articles/tidy-brms.html). Let's take a look at how we'll be using it.


```r
b12.7 %>%
  spread_draws(b_Intercept, r_actor[actor,])
```

```
## # A tibble: 112,000 x 6
## # Groups:   actor [7]
##    .chain .iteration .draw b_Intercept actor r_actor
##     <int>      <int> <int>       <dbl> <int>   <dbl>
##  1      1          1     1        1.30     1  -1.72 
##  2      1          1     1        1.30     2   4.08 
##  3      1          1     1        1.30     3  -1.55 
##  4      1          1     1        1.30     4  -1.59 
##  5      1          1     1        1.30     5  -1.26 
##  6      1          1     1        1.30     6  -0.478
##  7      1          1     1        1.30     7   0.984
##  8      1          2     2        1.18     1  -1.31 
##  9      1          2     2        1.18     2   4.21 
## 10      1          2     2        1.18     3  -2.06 
## # … with 111,990 more rows
```

First, notice `tidybayes::spread_draws()` took the model fit itself, `b12.7`, as input. No need for `posterior_samples()`. Now, notice we fed it two additional arguments. By the first argument, we that requested `spead_draws()` extract the posterior samples for the `b_Intercept`. By the second argument, `r_actor[actor,]`, we instructed `spead_draws()` to extract all the random effects for the `actor` variable. Also notice how within the brackets `[]` we specified `actor`, which then became the name of the column in the output that indexed the levels of the grouping variable `actor`. By default, the code returns the posterior samples for all the levels of `actor`. However, had we only wanted those from chimps #1 and #3, we might use typical tidyverse-style indexing. E.g.,


```r
b12.7 %>%
  spread_draws(b_Intercept, r_actor[actor,]) %>% 
  filter(actor %in% c(1, 3))
```

```
## # A tibble: 32,000 x 6
## # Groups:   actor [2]
##    .chain .iteration .draw b_Intercept actor r_actor
##     <int>      <int> <int>       <dbl> <int>   <dbl>
##  1      1          1     1        1.30     1   -1.72
##  2      1          1     1        1.30     3   -1.55
##  3      1          2     2        1.18     1   -1.31
##  4      1          2     2        1.18     3   -2.06
##  5      1          3     3        1.32     1   -1.36
##  6      1          3     3        1.32     3   -1.78
##  7      1          4     4        1.19     1   -1.70
##  8      1          4     4        1.19     3   -1.65
##  9      1          5     5        1.20     1   -1.58
## 10      1          5     5        1.20     3   -1.50
## # … with 31,990 more rows
```
…
