9 Big Entropy and the Generalized Linear Model | Statistical rethinking with brms, ggplot2, and the tidyverse
…
In this model, the mean \(\mu\) is constant, but the standard deviation scales with the value \(x_i\). (p. 268)

This kind of model is trivial in the brms framework, which you can learn more about in Bürkner’s (2020f) vignette, Estimating distributional models with brms. Before moving on with the text, let’s detour and see how we might fit such a model. First, we’ll simulate some continuous data y for which the \(SD\) is affected by a dummy variable x.

set.seed(9)
(
  d <-
  tibble(x = rep(0:1, each = 100)) %>% 
  mutate(y = rnorm(n = n(), mean = 100, sd = 10 + x * 10))
)

## # A tibble: 200 x 2
##        x     y
##    <int> <dbl>
##  1     0  92.3
##  2     0  91.8
##  3     0  98.6
##  4     0  97.2
##  5     0 104. 
##  6     0  88.1
##  7     0 112. 
##  8     0  99.8
##  9     0  97.5
## 10     0  96.4
## # … with 190 more rows
…
