10 Counting and Classification | Statistical rethinking with brms, ggplot2, and the tidyverse
…
## b10.1 b10.2 b10.3 b10.4 
##     0     0     0     1

Both the WAIC differences and the WAIC weights suggest our 9-parameter b10.4 was substantially better than the previous models, even after correcting for overfitting. Some times group averages aren’t good enough. When you have data with many occasions within cases, fitting models that allow for individual differences is generally the way to go.

10.1.1.1 Overthinking: Using the by group_by() function.

Instead of focusing on base R, let’s work within the tidyverse. If you wanted to compute the proportion of trials pulled_left == 1 for each combination of prosoc_left, condition, and chimp actor, you’d put those last three variables within group_by() and then compute the mean() of pulled_left within summarise().

d %>% 
  group_by(prosoc_left, condition, actor) %>% 
  summarise(`proportion pulled_left` = mean(pulled_left))

## # A tibble: 28 x 4
## # Groups:   prosoc_left, condition [4]
##    prosoc_left condition actor `proportion pulled_left`
##          <int>     <int> <int>                    <dbl>
##  1           0         0     1                    0.333
##  2           0         0     2                    1    
##  3           0         0     3                    0.278
##  4           0         0     4                    0.333
##  5           0         0     5                    0.333
##  6           0         0     6                    0.778
##  7           0         0     7                    0.778
##  8           0         1     1                    0.278
##  9           0         1     2                    1    
## 10           0         1     3                    0.167
## # … with 18 more rows
…
num_weeks <- 4
y_new     <- rpois(num_weeks, 0.5 * 7)

Let’s make them tidy and add log_days.

(
  d <- 
  tibble(y         = c(y, y_new), 
         days      = c(rep(1, num_days), rep(7, num_weeks)),
         monastery = c(rep(0, num_days), rep(1, num_weeks))) %>%
  mutate(log_days = log(days))
)

## # A tibble: 34 x 4
##        y  days monastery log_days
##    <int> <dbl>     <dbl>    <dbl>
##  1     1     1         0        0
##  2     1     1         0        0
##  3     1     1         0        0
##  4     2     1         0        0
##  5     0     1         0        0
##  6     1     1         0        0
##  7     1     1         0        0
##  8     1     1         0        0
##  9     2     1         0        0
## 10     1     1         0        0
## # … with 24 more rows
…
