14 Missing Data and Other Opportunities | Statistical rethinking with brms, ggplot2, and the tidyverse
…
## # A tibble: 6 × 5
##   variable       mean    sd  `2.5%` `97.5%`
##   <chr>         <dbl> <dbl>   <dbl>   <dbl>
## 1 b_Intercept   21.3   6.65    8.41   34.2 
## 2 b_R            0.13  0.08   -0.02    0.28
## 3 b_A           -0.55  0.21   -0.97   -0.12
## 4 sigma          1.13  0.21    0.76    1.56
## 5 lprior       -13.7   1.43  -17.1   -11.6 
## 6 lp__        -105.    1.46 -109.   -104.

summarise_draws(b14.1_mi, mean, sd, ~quantile(.x, probs = c(.025, .975))) %>% 
  mutate_if(is.numeric, round, digits = 2)

## # A tibble: 56 × 5
##    variable     mean    sd `2.5%` `97.5%`
##    <chr>       <dbl> <dbl>  <dbl>   <dbl>
##  1 b_Intercept 21.6   6.61   8.32   34.3 
##  2 b_R          0.13  0.08  -0.02    0.28
##  3 b_A         -0.56  0.21  -0.97   -0.13
##  4 sigma        1.11  0.2    0.75    1.55
##  5 Yl[1]       11.8   0.68  10.5    13.1 
##  6 Yl[2]       11.2   1.04   9.2    13.3 
##  7 Yl[3]       10.5   0.63   9.23   11.7 
##  8 Yl[4]       12.3   0.87  10.6    14.1 
##  9 Yl[5]        8.05  0.24   7.58    8.52
## 10 Yl[6]       11.0   0.73   9.6    12.5 
## # … with 46 more rows
…
Behold the parameter summaries.

summarise_draws(b14.4, mean, sd, ~quantile(.x, probs = c(.025, .975))) %>% 
  mutate_if(is.numeric, round, digits = 2)

## # A tibble: 21 × 5
##    variable               mean    sd `2.5%` `97.5%`
##    <chr>                 <dbl> <dbl>  <dbl>   <dbl>
##  1 b_kcal_Intercept      -0.86  0.48  -1.76    0.13
##  2 b_neocortex_Intercept  0.64  0.01   0.61    0.66
##  3 b_kcal_logmass        -0.09  0.02  -0.13   -0.04
##  4 b_neocortex_logmass    0.02  0.01   0.01    0.03
##  5 bsp_kcal_mineocortex   2.43  0.74   0.88    3.83
##  6 sigma_kcal             0.13  0.02   0.09    0.18
##  7 sigma_neocortex        0.04  0.01   0.03    0.06
##  8 Ymi_neocortex[2]       0.63  0.03   0.56    0.7 
##  9 Ymi_neocortex[3]       0.63  0.04   0.56    0.7 
## 10 Ymi_neocortex[4]       0.62  0.04   0.55    0.69
## # … with 11 more rows
…
