12 Multilevel Models | Statistical Rethinking with brms, ggplot2, and the tidyverse
…
This time we don’t get a list of 48 separate tank-level parameters. However, we do get a description of their distribution interns of a mean (i.e., Intercept) and standard deviation (i.e., sd(Intercept)). If you’d like the actual tank-level parameters, don’t worry; they’re coming in Figure 12.1. We’ll need to do a little prep work, though.

post <- posterior_samples(b12.2, add_chain = T)

post_mdn <- 
  coef(b12.2, robust = T)$tank[, , ] %>% 
  as_tibble() %>% 
  bind_cols(d) %>%
  mutate(post_mdn = inv_logit_scaled(Estimate))

post_mdn

## # A tibble: 48 x 11
##    Estimate Est.Error   Q2.5 Q97.5 density pred  size   surv propsurv  tank post_mdn
##       <dbl>     <dbl>  <dbl> <dbl>   <int> <fct> <fct> <int>    <dbl> <int>    <dbl>
##  1    2.06      0.850  0.582  4.03      10 no    big       9      0.9     1    0.887
##  2    2.93      1.06   1.17   5.53      10 no    big      10      1       2    0.949
##  3    0.971     0.655 -0.268  2.40      10 no    big       7      0.7     3    0.725
##  4    2.95      1.07   1.15   5.56      10 no    big      10      1       4    0.950
##  5    2.06      0.859  0.583  4.04      10 no    small     9      0.9     5    0.887
##  6    2.07      0.856  0.586  3.99      10 no    small     9      0.9     6    0.888
##  7    2.96      1.09   1.19   5.51      10 no    small    10      1       7    0.951
##  8    2.07      0.832  0.586  4.03      10 no    small     9      0.9     8    0.888
##  9   -0.182     0.612 -1.45   1.05      10 pred  big       4      0.4     9    0.455
## 10    2.06      0.849  0.592  4.01      10 pred  big       9      0.9    10    0.887
## # … with 38 more rows
…
Each pond \(i\) has \(n_i\) potential survivors, and nature flips each tadpole’s coin, so to speak, with probability of survival \(p_i\). This probability \(p_i\) is implied by the model definition, and is equal to:

\[p_i = \frac{\exp (\alpha_i)}{1 + \exp (\alpha_i)}\]

The model uses a logit link, and so the probability is defined by the [inv_logit_scaled()] function. (p. 367)

set.seed(12)
(
  dsim <-
  dsim %>%
  mutate(si = rbinom(n = n(), prob = inv_logit_scaled(true_a), size = ni))
)

## # A tibble: 60 x 4
##     pond    ni  true_a    si
##    <int> <int>   <dbl> <int>
##  1     1     5 -0.821      0
##  2     2     5  3.77       5
##  3     3     5 -0.0351     4
##  4     4     5  0.0200     3
##  5     5     5 -1.60       0
##  6     6     5  0.992      5
##  7     7     5  0.927      5
##  8     8     5  0.458      3
##  9     9     5  1.24       5
## 10    10     5  2.04       5
## # … with 50 more rows

12.2.4 Compute the no-pooling estimates.

The no-pooling estimates (i.e., \(\alpha_{\text{tank}_i}\)) are the results of simple algebra.

(
  dsim <-
  dsim %>%
  mutate(p_nopool = si / ni)
)

## # A tibble: 60 x 5
##     pond    ni  true_a    si p_nopool
##    <int> <int>   <dbl> <int>    <dbl>
##  1     1     5 -0.821      0      0  
##  2     2     5  3.77       5      1  
##  3     3     5 -0.0351     4      0.8
##  4     4     5  0.0200     3      0.6
##  5     5     5 -1.60       0      0  
##  6     6     5  0.992      5      1  
##  7     7     5  0.927      5      1  
##  8     8     5  0.458      3      0.6
##  9     9     5  1.24       5      1  
## 10    10     5  2.04       5      1  
## # … with 50 more rows
…
         probs = c(.1, .9),
         allow_new_levels = T,
         sample_new_levels = "gaussian",
         summary = F,
         nsamples = n_sim) %>% 
  as_tibble() %>% 
  mutate(iter = 1:n_sim) %>% 
  gather(key, value, -iter) %>% 
  bind_cols(nd %>% 
              transmute(condition = factor(str_c(prosoc_left, "/", condition), 
                                           levels = c("0/0", "1/0", "0/1", "1/1"))) %>% 
              expand(condition, iter = 1:n_sim))
)

## # A tibble: 200 x 5
##     iter key    value condition iter1
##    <int> <chr>  <dbl> <fct>     <int>
##  1     1 V1    0.0442 0/0           1
##  2     2 V1    0.558  0/0           2
##  3     3 V1    0.809  0/0           3
##  4     4 V1    0.929  0/0           4
##  5     5 V1    0.820  0/0           5
##  6     6 V1    0.370  0/0           6
##  7     7 V1    0.347  0/0           7
##  8     8 V1    0.0993 0/0           8
##  9     9 V1    0.847  0/0           9
## 10    10 V1    0.0179 0/0          10
## # … with 190 more rows
…
Let’s learn one more option.

12.5.5 tidybayes::spread_draws().

Up till this point, we’ve really only used the tidybayes package for plotting (e.g., with geom_halfeyeh()) and summarizing (e.g., with median_qi()). But tidybayes is more general; it offers a handful of convenience functions for wrangling posterior draws from a tidyverse perspective. One such function is spread_draws(), which you can learn all about in Matthew Kay’s vignette, Extracting and visualizing tidy draws from brms models. Let’s take a look at how we’ll be using it.

b12.7 %>%
  spread_draws(b_Intercept, r_actor[actor,])

## # A tibble: 112,000 x 6
## # Groups:   actor [7]
##    .chain .iteration .draw b_Intercept actor r_actor
##     <int>      <int> <int>       <dbl> <int>   <dbl>
##  1      1          1     1      -0.760     1  0.191 
##  2      1          1     1      -0.760     2  5.19  
##  3      1          1     1      -0.760     3 -0.0268
##  4      1          1     1      -0.760     4  0.294 
##  5      1          1     1      -0.760     5  0.350 
##  6      1          1     1      -0.760     6  1.46  
##  7      1          1     1      -0.760     7  3.17  
##  8      1          2     2      -0.640     1  0.311 
##  9      1          2     2      -0.640     2  3.86  
## 10      1          2     2      -0.640     3  0.253 
## # … with 111,990 more rows

First, notice tidybayes::spread_draws() took the model fit itself, b12.7, as input. No need for posterior_samples(). Now, notice we fed it two additional arguments. By the first argument, we that requested spead_draws() extract the posterior samples for the b_Intercept. By the second argument, r_actor[actor,], we instructed spead_draws() to extract all the random effects for the actor variable. Also notice how within the brackets [] we specified actor, which then became the name of the column in the output that indexed the levels of the grouping variable actor. By default, the code returns the posterior samples for all the levels of actor. However, had we only wanted those from chimps #1 and #3, we might use typical tidyverse-style indexing. E.g.,

b12.7 %>%
  spread_draws(b_Intercept, r_actor[actor,]) %>% 
  filter(actor %in% c(1, 3))

## # A tibble: 32,000 x 6
## # Groups:   actor [2]
##    .chain .iteration .draw b_Intercept actor r_actor
##     <int>      <int> <int>       <dbl> <int>   <dbl>
##  1      1          1     1      -0.760     1  0.191 
##  2      1          1     1      -0.760     3 -0.0268
##  3      1          2     2      -0.640     1  0.311 
##  4      1          2     2      -0.640     3  0.253 
##  5      1          3     3      -0.786     1  0.328 
##  6      1          3     3      -0.786     3  0.323 
##  7      1          4     4      -0.274     1  0.123 
##  8      1          4     4      -0.274     3 -0.546 
##  9      1          5     5      -0.367     1 -0.167 
## 10      1          5     5      -0.367     3  0.0647
## # … with 31,990 more rows
…
