3 Sampling the Imaginary | Statistical rethinking with brms, ggplot2, and the tidyverse
…
# how many grid points would you like?
n <- 1001
n_success <- 6
n_trials  <- 9

(
  d <-
  tibble(p_grid = seq(from = 0, to = 1, length.out = n),
         # note we're still using a flat uniform prior
         prior  = 1) %>% 
  mutate(likelihood = dbinom(n_success, size = n_trials, prob = p_grid)) %>% 
  mutate(posterior = (likelihood * prior) / sum(likelihood * prior))
)

## # A tibble: 1,001 × 4
##    p_grid prior likelihood posterior
##     <dbl> <dbl>      <dbl>     <dbl>
##  1  0         1   0         0       
##  2  0.001     1   8.37e-17  8.37e-19
##  3  0.002     1   5.34e-15  5.34e-17
##  4  0.003     1   6.07e-14  6.07e-16
##  5  0.004     1   3.40e-13  3.40e-15
##  6  0.005     1   1.29e-12  1.29e-14
##  7  0.006     1   3.85e-12  3.85e-14
##  8  0.007     1   9.68e-12  9.68e-14
##  9  0.008     1   2.15e-11  2.15e-13
## 10  0.009     1   4.34e-11  4.34e-13
## # … with 991 more rows
…
# make the next part reproducible
set.seed(3)

# here's our new samples tibble
(
  samples <-
    d %>% 
    sample_n(size = n_samples, weight = posterior, replace = T)
)

## # A tibble: 10,000 × 4
##    p_grid prior likelihood posterior
##     <dbl> <dbl>      <dbl>     <dbl>
##  1  0.716     1     0.367   0.00147 
##  2  0.651     1     0.276   0.00110 
##  3  0.547     1     0.164   0.000653
##  4  0.999     1     0.997   0.00398 
##  5  0.99      1     0.970   0.00387 
##  6  0.787     1     0.487   0.00195 
##  7  0.94      1     0.831   0.00332 
##  8  0.817     1     0.545   0.00218 
##  9  0.955     1     0.871   0.00348 
## 10  0.449     1     0.0905  0.000361
## # … with 9,990 more rows
…
3.2.3 Point estimates.

We’ve been calling point estimates measures of central tendency. If we arrange() our d tibble in descending order by posterior, we’ll see the corresponding p_grid value for its MAP estimate.

d %>% 
  arrange(desc(posterior))

## # A tibble: 1,001 × 4
##    p_grid prior likelihood posterior
##     <dbl> <dbl>      <dbl>     <dbl>
##  1  1         1      1       0.00399
##  2  0.999     1      0.997   0.00398
##  3  0.998     1      0.994   0.00397
##  4  0.997     1      0.991   0.00396
##  5  0.996     1      0.988   0.00394
##  6  0.995     1      0.985   0.00393
##  7  0.994     1      0.982   0.00392
##  8  0.993     1      0.979   0.00391
##  9  0.992     1      0.976   0.00390
## 10  0.991     1      0.973   0.00389
## # … with 991 more rows
…
(
  l <-
  d %>% 
  select(p_grid) %>% 
  rename(decision = p_grid) %>% 
  mutate(weighted_average_loss = purrr::map(decision, make_loss)) %>% 
  unnest(weighted_average_loss) 
)

## # A tibble: 1,001 × 2
##    decision weighted_average_loss
##       <dbl>                 <dbl>
##  1    0                     0.800
##  2    0.001                 0.799
##  3    0.002                 0.798
##  4    0.003                 0.797
##  5    0.004                 0.796
##  6    0.005                 0.795
##  7    0.006                 0.794
##  8    0.007                 0.793
##  9    0.008                 0.792
## 10    0.009                 0.791
## # … with 991 more rows
…
# how many grid points would you like?
n <- 1001
n_success <- 6
n_trials  <- 9

(
  d <-
  tibble(p_grid = seq(from = 0, to = 1, length.out = n),
         # note we're still using a flat uniform prior
         prior  = 1) %>% 
  mutate(likelihood = dbinom(n_success, size = n_trials, prob = p_grid)) %>% 
  mutate(posterior = (likelihood * prior) / sum(likelihood * prior))
)

## # A tibble: 1,001 × 4
##    p_grid prior likelihood posterior
##     <dbl> <dbl>      <dbl>     <dbl>
##  1  0         1   0         0       
##  2  0.001     1   8.37e-17  8.37e-19
##  3  0.002     1   5.34e-15  5.34e-17
##  4  0.003     1   6.07e-14  6.07e-16
##  5  0.004     1   3.40e-13  3.40e-15
##  6  0.005     1   1.29e-12  1.29e-14
##  7  0.006     1   3.85e-12  3.85e-14
##  8  0.007     1   9.68e-12  9.68e-14
##  9  0.008     1   2.15e-11  2.15e-13
## 10  0.009     1   4.34e-11  4.34e-13
## # … with 991 more rows
…
