…
``` r
# how many `p_grid` points would you like?
n_points <- 100

tibble(w = 6, 
       n = 9,
       p_grid       = seq(from = 0, to = 1, length.out = n_points)) %>% 
  mutate(prior      = dunif(p_grid, 0, 1),
         likelihood = dbinom(w, n, p_grid)) %>% 
  mutate(posterior  = likelihood * prior) %>% 
  # this last bit converts the posterior to the probability scale
  mutate(posterior  = posterior / sum(posterior))
```

    ## # A tibble: 100 x 6
    ##        w     n p_grid prior likelihood posterior
    ##    <dbl> <dbl>  <dbl> <dbl>      <dbl>     <dbl>
    ##  1     6     9 0          1   0.        0.      
    ##  2     6     9 0.0101     1   8.65e-11  8.74e-12
    ##  3     6     9 0.0202     1   5.37e- 9  5.43e-10
    ##  4     6     9 0.0303     1   5.93e- 8  5.99e- 9
    ##  5     6     9 0.0404     1   3.23e- 7  3.26e- 8
    ##  6     6     9 0.0505     1   1.19e- 6  1.21e- 7
    ##  7     6     9 0.0606     1   3.45e- 6  3.49e- 7
    ##  8     6     9 0.0707     1   8.42e- 6  8.51e- 7
    ##  9     6     9 0.0808     1   1.82e- 5  1.83e- 6
    ## 10     6     9 0.0909     1   3.56e- 5  3.60e- 6
    ## # ... with 90 more rows
…
