Ch. 6 Overfitting, Regularization, and Information Criteria
…
pwaic <-
  dfvar %>%
  sum()

pwaic

## [1] 3.282429

dfvar

## # A tibble: 50 x 1
##      vars
##     <dbl>
##  1 0.0253
##  2 0.0786
##  3 0.0204
##  4 0.0489
##  5 0.0141
##  6 0.0195
##  7 0.0130
##  8 0.0137
##  9 0.0288
## 10 0.0163
## # ... with 40 more rows
…
